src/build/module_7seg.vcd
$date
	Tue Sep 24 17:22:58 2024
$end
$version
	Icarus Verilog
$end
$timescale
	1ps
$end
$scope module test $end
$var wire 7 ! catodo [6:0] $end
$var wire 4 " anodo [3:0] $end
$var parameter 32 # CLOCK_PERIOD $end
$var reg 4 $ bin [3:0] $end
$var reg 1 % clk $end
$var reg 1 & rst $end
$scope module uut $end
$var wire 4 ' bin_i [3:0] $end
$var wire 1 % clk_i $end
$var wire 1 & rst_i $end
$var wire 7 ( catodo_o [6:0] $end
$var wire 16 ) bcd [15:0] $end
$var wire 4 * anodo_o [3:0] $end
$scope module bcd_converter $end
$var wire 4 + bin_i [3:0] $end
$var wire 1 % clk_i $end
$var wire 1 & rst_i $end
$var parameter 32 , WIDTH $end
$var reg 16 - bcd_o [15:0] $end
$var reg 4 . centenas [3:0] $end
$var reg 4 / decenas [3:0] $end
$var reg 4 0 millares [3:0] $end
$var reg 4 1 unidades [3:0] $end
$upscope $end
$scope module display_controller $end
$var wire 16 2 bcd_i [15:0] $end
$var wire 1 % clk_i $end
$var wire 1 & rst_i $end
$var parameter 32 3 DISPLAY_REFRESH $end
$var parameter 32 4 WIDTH_DISPLAY_COUNTER $end
$var reg 4 5 anodo_o [3:0] $end
$var reg 7 6 catodo_o [6:0] $end
$var reg 15 7 cuenta_salida [14:0] $end
$var reg 4 8 digito_o [3:0] $end
$var reg 2 9 en_conmutador [1:0] $end
$upscope $end
$upscope $end
$upscope $end
$enddefinitions $end
$comment Show the parameter values. $end
$dumpall
b1111 4
b110100101111000 3
b100 ,
b100101 #
$end
#0
$dumpvars
b0 9
b0 8
b110100101110111 7
b1000000 6
b1110 5
b0 2
b0 1
b0 0
b0 /
b0 .
b0 -
b0 +
b1110 *
b0 )
b1000000 (
b0 '
0&
0%
b0 $
b1110 "
b1000000 !
$end
#5000
1&
#15000
b1 1
b1 $
b1 '
b1 +
#18000
b110100101110110 7
b1 )
b1 -
b1 2
1%
#36000
0%
#54000
b110100101110101 7
1%
#72000
0%
#90000
b110100101110100 7
1%
#108000
0%
#115000
b10 1
b10 $
b10 '
b10 +
#126000
b10 )
b10 -
b10 2
b110100101110011 7
1%
#144000
0%
#162000
b110100101110010 7
1%
#180000
0%
#198000
b110100101110001 7
1%
#215000
b11 1
b11 $
b11 '
b11 +
#216000
0%
#234000
b110100101110000 7
b11 )
b11 -
b11 2
1%
#252000
0%
#270000
b110100101101111 7
1%
#288000
0%
#306000
b110100101101110 7
1%
#315000
b100 1
b100 $
b100 '
b100 +
#324000
0%
#342000
b100 )
b100 -
b100 2
b110100101101101 7
1%
#360000
0%
#378000
b110100101101100 7
1%
#396000
0%
#414000
b110100101101011 7
1%
#415000
b1001 1
b1001 $
b1001 '
b1001 +
#432000
0%
#450000
b110100101101010 7
b1001 )
b1001 -
b1001 2
1%
#468000
0%
#486000
b110100101101001 7
1%
#504000
0%
#515000
b1 /
b0 1
b1010 $
b1010 '
b1010 +
#522000
b110100101101000 7
b10000 )
b10000 -
b10000 2
1%
#540000
0%
#558000
b110100101100111 7
1%
#576000
0%
#594000
b110100101100110 7
1%
