src/build/module_deco_gray.vcd
$date
	Sat Aug 24 21:42:50 2024
$end
$version
	Icarus Verilog
$end
$timescale
	1ns
$end
$scope module test $end
$var wire 4 ! codigo_bin_led_o [3:0] $end
$var wire 7 " catodo_o [6:0] $end
$var wire 2 # anodo_o [1:0] $end
$var reg 1 $ clk_i $end
$var reg 4 % codigo_gray_i [3:0] $end
$var reg 1 & rst_i $end
$scope module DUT $end
$var wire 1 $ clk_pi $end
$var wire 4 ' codigo_bin_led_po [3:0] $end
$var wire 4 ( codigo_gray_pi [3:0] $end
$var wire 1 & rst_pi $end
$var wire 4 ) codigo_bin [3:0] $end
$var wire 8 * codigo_bcd [7:0] $end
$var wire 7 + catodo_po [6:0] $end
$var wire 2 , anodo_po [1:0] $end
$var parameter 32 - DISPLAY_REFRESH $end
$var parameter 32 . INPUT_REFRESH $end
$scope module SUBMODULE_BIN_BCD $end
$var wire 1 $ clk_i $end
$var wire 1 & rst_i $end
$var wire 4 / bin_i [3:0] $end
$var parameter 32 0 WIDTH $end
$var reg 8 1 bcd_o [7:0] $end
$var reg 4 2 decenas [3:0] $end
$var reg 4 3 decenas_sync [3:0] $end
$var reg 4 4 unidades [3:0] $end
$var reg 4 5 unidades_sync [3:0] $end
$upscope $end
$scope module SUBMODULE_DISPLAY $end
$var wire 8 6 bcd_i [7:0] $end
$var wire 1 $ clk_i $end
$var wire 1 & rst_i $end
$var parameter 32 7 DISPLAY_REFRESH $end
$var parameter 32 8 WIDTH_DISPLAY_COUNTER $end
$var reg 2 9 anodo_o [1:0] $end
$var reg 7 : catodo_o [6:0] $end
$var reg 3 ; cuenta_salida [2:0] $end
$var reg 2 < decena_unidad [1:0] $end
$var reg 4 = digito_o [3:0] $end
$var reg 1 > en_conmutador $end
$upscope $end
$scope module SUBMODULE_INPUT $end
$var wire 1 $ clk_i $end
$var wire 4 ? codigo_gray_i [3:0] $end
$var wire 1 & rst_i $end
$var parameter 32 @ INPUT_REFRESH $end
$var parameter 32 A WIDTH $end
$var parameter 32 B WIDTH_INPUT_COUNTER $end
$var reg 4 C codigo_bin_o [3:0] $end
$var reg 4 D codigo_gray_sync_r [3:0] $end
$var reg 3 E cuenta_entrada [2:0] $end
$var reg 1 F en_lectura $end
$scope begin $unm_blk_35 $end
$var reg 1 G bit_a $end
$var reg 1 H bit_b $end
$var reg 1 I bit_c $end
$var reg 1 J bit_d $end
$upscope $end
$upscope $end
$upscope $end
$upscope $end
$enddefinitions $end
$comment Show the parameter values. $end
$dumpall
b11 B
b100 A
b110 @
b11 8
b101 7
b100 0
b110 .
b101 -
$end
#0
$dumpvars
0J
0I
0H
0G
0F
b101 E
b0 D
b0 C
bx ?
0>
b0 =
b0 <
b100 ;
b1000000 :
b10 9
b0 6
b0 5
b0 4
b0 3
b0 2
b0 1
b0 /
b10 ,
b1000000 +
b0 *
b0 )
bx (
b1111 '
0&
bx %
1$
b10 #
b1000000 "
b1111 !
$end
#10
0$
#20
1$
#30
0$
b0 %
b0 (
b0 ?
1&
#40
b11 ;
b100 E
1$
#50
0$
#60
b10 ;
b11 E
1$
#70
0$
#80
b1 ;
b10 E
1$
#90
0$
#100
b0 ;
b1 E
1$
#110
0$
#120
1>
b100 ;
b0 E
1$
#130
0$
b1 %
b1 (
b1 ?
#140
b1 #
b1 ,
b1 9
0>
b11 ;
b1 <
1F
b101 E
1$
#150
0$
#160
b1110 !
b1110 '
b1 4
b1 )
b1 /
b1 C
1J
b10 ;
0F
b100 E
b1 D
1$
#170
0$
#180
b1 ;
b1 5
b11 E
1$
#190
0$
#200
b1 *
b1 1
b1 6
b0 ;
b10 E
1$
#210
0$
#220
1>
b100 ;
b1 E
1$
#230
0$
b11 %
b11 (
b11 ?
#240
b11 #
b11 ,
b11 9
0>
b11 ;
b0 E
b10 <
1$
#250
0$
#260
b10 ;
1F
b101 E
1$
#270
0$
#280
b1101 !
b1101 '
b10 4
b10 )
b10 /
b10 C
1I
b1 ;
0F
b100 E
b11 D
1$
#290
0$
#300
b0 ;
b10 5
b11 E
1$
#310
0$
#320
b10 *
b10 1
b10 6
1>
b100 ;
b10 E
1$
#330
0$
b10 %
b10 (
b10 ?
#340
0>
b11 ;
b11 <
b1 E
1$
#350
0$
#360
b10 ;
b0 E
1$
#370
0$
#380
b1 ;
1F
b101 E
1$
#390
0$
#400
b1100 !
b1100 '
b11 4
b11 )
b11 /
b11 C
0J
b0 ;
0F
b100 E
b10 D
1$
#410
0$
#420
1>
b100 ;
b11 5
b11 E
1$
#430
0$
b110 %
b110 (
b110 ?
#440
b110000 "
b110000 +
b110000 :
b11 =
b10 #
b10 ,
b10 9
b11 *
b11 1
b11 6
0>
b11 ;
b10 E
b0 <
1$
#450
0$
#460
b10 ;
b1 E
1$
#470
0$
#480
b1 ;
b0 E
1$
#490
0$
#500
b0 ;
1F
b101 E
1$
#510
0$
#520
b1011 !
b1011 '
b100 4
b100 )
b100 /
b100 C
1H
1>
b100 ;
0F
b100 E
b110 D
1$
#530
0$
b111 %
b111 (
b111 ?
#540
b1000000 "
b1000000 +
b1000000 :
b1 #
b1 ,
b1 9
b0 =
0>
b11 ;
b100 5
b1 <
b11 E
1$
#550
0$
#560
b100 *
b100 1
b100 6
b10 ;
b10 E
1$
#570
0$
#580
b1 ;
b1 E
1$
#590
0$
#600
b0 ;
b0 E
1$
#610
0$
#620
1>
b100 ;
1F
b101 E
1$
#630
0$
b101 %
b101 (
b101 ?
#640
b1001 !
b1001 '
b110 4
b110 )
b110 /
b110 C
1J
0I
b11 #
b11 ,
b11 9
0>
b11 ;
0F
b100 E
b101 D
b10 <
1$
#650
0$
#660
b10 ;
b110 5
b11 E
1$
#670
0$
#680
b110 *
b110 1
b110 6
b1 ;
b10 E
1$
#690
0$
#700
b0 ;
b1 E
1$
#710
0$
#720
1>
b100 ;
b0 E
1$
#730
0$
b100 %
b100 (
b100 ?
#740
0>
b11 ;
b11 <
1F
b101 E
1$
#750
0$
#760
b1000 !
b1000 '
b111 4
b111 )
b111 /
b111 C
0J
b10 ;
0F
b100 E
b100 D
1$
#770
0$
#780
b1 ;
b111 5
b11 E
1$
#790
0$
#800
b111 *
b111 1
b111 6
b0 ;
b10 E
1$
#810
0$
#820
1>
b100 ;
b1 E
1$
#830
0$
b1100 %
b1100 (
b1100 ?
#840
b1111000 "
b1111000 +
b1111000 :
b111 =
b10 #
b10 ,
b10 9
0>
b11 ;
b0 E
b0 <
1$
#850
0$
#860
b10 ;
1F
b101 E
1$
#870
0$
#880
b111 !
b111 '
b1000 4
b1000 )
b1000 /
b1000 C
1G
b1 ;
0F
b100 E
b1100 D
1$
#890
0$
#900
b0 ;
b1000 5
b11 E
1$
#910
0$
#920
b1000 *
b1000 1
b1000 6
1>
b100 ;
b10 E
1$
#930
0$
b1101 %
b1101 (
b1101 ?
#940
b1000000 "
b1000000 +
b1000000 :
b1 #
b1 ,
b1 9
b0 =
0>
b11 ;
b1 <
b1 E
1$
#950
0$
#960
b10 ;
b0 E
1$
#970
0$
#980
b1 ;
1F
b101 E
1$
#990
0$
#1000
b110 !
b110 '
b1001 4
b1001 )
b1001 /
b1001 C
1J
b0 ;
0F
b100 E
b1101 D
1$
#1010
0$
#1020
1>
b100 ;
b1001 5
b11 E
1$
#1030
0$
b1111 %
b1111 (
b1111 ?
#1040
b11 #
b11 ,
b11 9
b1001 *
b1001 1
b1001 6
0>
b11 ;
b10 E
b10 <
1$
#1050
0$
#1060
b10 ;
b1 E
1$
#1070
0$
#1080
b1 ;
b0 E
1$
#1090
0$
#1100
b0 ;
1F
b101 E
1$
#1110
0$
#1120
b101 !
b101 '
b1 2
b0 4
b1010 )
b1010 /
b1010 C
1I
1>
b100 ;
0F
b100 E
b1111 D
1$
#1130
0$
b1110 %
b1110 (
b1110 ?
#1140
0>
b11 ;
b1 3
b0 5
b11 <
b11 E
1$
#1150
0$
#1160
b10000 *
b10000 1
b10000 6
b10 ;
b10 E
1$
#1170
0$
#1180
b1 ;
b1 E
1$
#1190
0$
#1200
b0 ;
b0 E
1$
#1210
0$
#1220
1>
b100 ;
1F
b101 E
1$
#1230
0$
b1010 %
b1010 (
b1010 ?
#1240
b11 !
b11 '
b10 4
b1 2
b1100 )
b1100 /
b1100 C
0J
0H
b10 #
b10 ,
b10 9
0>
b11 ;
0F
b100 E
b1010 D
b0 <
1$
#1250
0$
#1260
b10 ;
b10 5
b11 E
1$
#1270
0$
#1280
b10010 *
b10010 1
b10010 6
b1 ;
b10 E
1$
#1290
0$
#1300
b0 ;
b1 E
1$
#1310
0$
#1320
1>
b100 ;
b0 E
1$
#1330
0$
b1011 %
b1011 (
b1011 ?
#1340
b1111001 "
b1111001 +
b1111001 :
b1 =
b1 #
b1 ,
b1 9
0>
b11 ;
b1 <
1F
b101 E
1$
#1350
0$
#1360
b10 !
b10 '
b1 2
b11 4
b1101 )
b1101 /
b1101 C
1J
b10 ;
0F
b100 E
b1011 D
1$
#1370
0$
#1380
b1 ;
b11 5
b11 E
1$
#1390
0$
#1400
b10011 *
b10011 1
b10011 6
b0 ;
b10 E
1$
#1410
0$
#1420
1>
b100 ;
b1 E
1$
#1430
0$
b1001 %
b1001 (
b1001 ?
#1440
b1000000 "
b1000000 +
b1000000 :
b11 #
b11 ,
b11 9
b0 =
0>
b11 ;
b0 E
b10 <
1$
#1450
0$
#1460
b10 ;
1F
b101 E
1$
#1470
0$
#1480
b1 !
b1 '
b1 2
b100 4
b1110 )
b1110 /
b1110 C
0I
b1 ;
0F
b100 E
b1001 D
1$
#1490
0$
#1500
b0 ;
b100 5
b11 E
1$
#1510
0$
#1520
b10100 *
b10100 1
b10100 6
1>
b100 ;
b10 E
1$
#1530
0$
b1000 %
b1000 (
b1000 ?
#1540
0>
b11 ;
b11 <
b1 E
1$
#1550
0$
#1560
b10 ;
b0 E
1$
#1570
0$
#1580
b1 ;
1F
b101 E
1$
#1590
0$
#1600
b0 !
b0 '
b1 2
b101 4
b1111 )
b1111 /
b1111 C
0J
b0 ;
0F
b100 E
b1000 D
1$
#1610
0$
#1620
1>
b100 ;
b101 5
b11 E
1$
#1630
0$
#1640
b10010 "
b10010 +
b10010 :
b101 =
b10 #
b10 ,
b10 9
b10101 *
b10101 1
b10101 6
0>
b11 ;
b10 E
b0 <
1$
#1650
0$
#1660
b10 ;
b1 E
1$
#1670
0$
#1680
b1 ;
b0 E
1$
#1690
0$
#1700
b0 ;
1F
b101 E
1$
#1710
0$
#1720
1>
b100 ;
0F
b100 E
1$
#1730
0$
#1740
b1111001 "
b1111001 +
b1111001 :
b1 #
b1 ,
b1 9
b1 =
0>
b11 ;
b1 <
b11 E
1$
#1750
0$
#1760
b10 ;
b10 E
1$
#1770
0$
#1780
b1 ;
b1 E
1$
#1790
0$
#1800
b0 ;
b0 E
1$
#1810
0$
#1820
1>
b100 ;
1F
b101 E
1$
#1830
0$
#1840
b1000000 "
b1000000 +
b1000000 :
b11 #
b11 ,
b11 9
b0 =
0>
b11 ;
0F
b100 E
b10 <
1$
#1850
0$
#1860
b10 ;
b11 E
1$
#1870
0$
#1880
b1 ;
b10 E
1$
#1890
0$
#1900
b0 ;
b1 E
1$
#1910
0$
#1920
1>
b100 ;
b0 E
1$
#1930
0$
#1940
0>
b11 ;
b11 <
1F
b101 E
1$
#1950
0$
#1960
b10 ;
0F
b100 E
1$
#1970
0$
#1980
b1 ;
b11 E
1$
#1990
0$
#2000
b0 ;
b10 E
1$
#2010
0$
#2020
1>
b100 ;
b1 E
1$
#2030
0$
#2040
b10010 "
b10010 +
b10010 :
b101 =
b10 #
b10 ,
b10 9
0>
b11 ;
b0 E
b0 <
1$
#2050
0$
#2060
b10 ;
1F
b101 E
1$
#2070
0$
#2080
b1 ;
0F
b100 E
1$
#2090
0$
#2100
b0 ;
b11 E
1$
#2110
0$
#2120
1>
b100 ;
b10 E
1$
#2130
0$
#2140
b1111001 "
b1111001 +
b1111001 :
b1 #
b1 ,
b1 9
b1 =
0>
b11 ;
b1 <
b1 E
1$
#2150
0$
#2160
b10 ;
b0 E
1$
#2170
0$
#2180
b1 ;
1F
b101 E
1$
#2190
0$
#2200
b0 ;
0F
b100 E
1$
#2210
0$
#2220
1>
b100 ;
b11 E
1$
#2230
0$
#2240
b1000000 "
b1000000 +
b1000000 :
b11 #
b11 ,
b11 9
b0 =
0>
b11 ;
b10 E
b10 <
1$
#2250
0$
#2260
b10 ;
b1 E
1$
#2270
0$
#2280
b1 ;
b0 E
1$
#2290
0$
#2300
b0 ;
1F
b101 E
1$
#2310
0$
#2320
1>
b100 ;
0F
b100 E
1$
#2330
0$
#2340
0>
b11 ;
b11 <
b11 E
1$
#2350
0$
#2360
b10 ;
b10 E
1$
#2370
0$
#2380
b1 ;
b1 E
1$
#2390
0$
#2400
b0 ;
b0 E
1$
#2410
0$
#2420
1>
b100 ;
1F
b101 E
1$
#2430
0$
#2440
b10010 "
b10010 +
b10010 :
b101 =
b10 #
b10 ,
b10 9
0>
b11 ;
0F
b100 E
b0 <
1$
#2450
0$
#2460
b10 ;
b11 E
1$
#2470
0$
#2480
b1 ;
b10 E
1$
#2490
0$
#2500
b0 ;
b1 E
1$
#2510
0$
#2520
1>
b100 ;
b0 E
1$
#2530
0$
#2540
b1111001 "
b1111001 +
b1111001 :
b1 #
b1 ,
b1 9
b1 =
0>
b11 ;
b1 <
1F
b101 E
1$
#2550
0$
#2560
b10 ;
0F
b100 E
1$
#2570
0$
#2580
b1 ;
b11 E
1$
#2590
0$
#2600
b0 ;
b10 E
1$
#2610
0$
#2620
1>
b100 ;
b1 E
1$
