src/build/sumador.vcd
$date
	Tue Sep 24 18:22:55 2024
$end
$version
	Icarus Verilog
$end
$timescale
	1ps
$end
$scope module testbench $end
$var wire 13 ! sum_result [12:0] $end
$var wire 4 " key_out [3:0] $end
$var wire 4 # col_out [3:0] $end
$var parameter 32 $ CLK_PERIOD $end
$var reg 1 % clk $end
$var reg 1 & finish_input $end
$var reg 1 ' new_input $end
$var reg 12 ( num1_hex [11:0] $end
$var reg 12 ) num2_hex [11:0] $end
$var reg 4 * row_in [3:0] $end
$var reg 1 + rst $end
$scope module uut_arithmetic $end
$var wire 1 % clk $end
$var wire 1 & finish_input $end
$var wire 1 ' new_input $end
$var wire 12 , num1_hex [11:0] $end
$var wire 12 - num2_hex [11:0] $end
$var wire 1 + rst $end
$var reg 2 . next_state [1:0] $end
$var reg 2 / state [1:0] $end
$var reg 13 0 stored_result [12:0] $end
$var reg 13 1 sum_result [12:0] $end
$upscope $end
$scope module uut_teclado $end
$var wire 1 % clk $end
$var wire 4 2 col_out [3:0] $end
$var wire 4 3 key_out [3:0] $end
$var wire 4 4 row_in [3:0] $end
$var wire 1 + rst $end
$var reg 16 5 clk_divider_counter [15:0] $end
$var reg 4 6 col_shift_reg [3:0] $end
$var reg 2 7 column_index [1:0] $end
$var reg 2 8 current_state [1:0] $end
$var reg 1 9 debounced_key $end
$var reg 4 : key_code [3:0] $end
$var reg 1 ; key_pressed $end
$var reg 2 < next_state [1:0] $end
$var reg 4 = row_capture [3:0] $end
$var reg 1 > slow_clk $end
$upscope $end
$upscope $end
$enddefinitions $end
$comment Show the parameter values. $end
$dumpall
b100101 $
$end
#0
$dumpvars
0>
bx =
b0 <
0;
b1111 :
09
b0 8
b0 7
b1 6
b0 5
b0 4
b1111 3
b1 2
bx 1
bx 0
bx /
b0 .
b0 -
b0 ,
1+
b0 *
b0 )
b0 (
0'
0&
0%
b1 #
b1111 "
bx !
$end
#18000
b0 /
0+
1%
#36000
0%
#54000
b1 5
b1 .
1'
b11 )
b11 -
b101 (
b101 ,
1%
#72000
0%
#90000
b1 /
b10 5
b11 .
0'
1%
#108000
0%
#126000
b1000 0
b1000 !
b1000 1
b11 /
b11 5
b0 .
1&
1%
#144000
0%
#162000
b0 /
b100 5
0&
1%
#180000
0%
#198000
b101 5
b1 <
b1 *
b1 4
1%
#216000
0%
#234000
b110 5
b0 <
b0 *
b0 4
1%
#252000
0%
#270000
b111 5
b1 <
b10 *
b10 4
1%
#288000
0%
#306000
b1000 5
b0 <
b0 *
b0 4
1%
#324000
0%
#342000
b1001 5
1%
